Pos;Comune;Residenti;Densità per kmq;Numero Famiglie
1;Roma;2.873.494;2.235,7;1.363.997
2;Milano;1.351.562;7.423,3;731.091
3;Napoli;970.185;8.273,1;379.674
4;Torino;886.837;6.812,9;438.954
5;Palermo;673.735;4.240,5;260.014
6;Genova;583.601;2.395,7;294.612
7;Bologna;388.367;2.759,7;205.050
8;Firenze;382.258;3.732,6;189.099
9;Bari;324.198;2.790,0;137.099
10;Catania;313.396;1.732,6;136.445
11;Venezia;261.905;634,9;128.194
12;Verona;257.353;1.245,4;122.000
13;Messina;236.962;1.121,8;99.704
14;Padova;209.829;2.259,9;100.374
15;Trieste;204.234;2.417,3;105.967
16;Taranto;199.561;917,5;82.400
17;Brescia;196.670;2.168,8;92.827
18;Parma;194.417;745,5;90.937
19;Prato;192.469;1.972,2;77.483
20;Modena;184.727;1.010,9;83.766
21;Reggio Calabria;182.551;773,5;74.483
22;Reggio Emilia;171.491;740,6;77.992
23;Perugia;166.676;370,5;73.958
24;Ravenna;159.057;243,6;74.464
25;Livorno;158.916;1.526,6;72.038
26;Cagliari;154.083;1.801,1;75.275
27;Foggia;151.726;298,8;58.469
28;Rimini;148.908;1.107,0;65.608
29;Salerno;134.850;2.287,1;55.379
30;Ferrara;132.009;326,5;64.585
31;Sassari;127.533;233,5;56.488
32;Latina;126.151;454,1;58.517
33;Giugliano in Campania;123.839;1.314,8;41.467
34;Monza;122.955;3.723,7;55.935
35;Siracusa;122.031;598,0;50.033
36;Pescara;120.420;3.581,8;54.838
37;Bergamo;120.287;3.037,6;57.745
38;Forlì;117.946;516,9;52.387
39;Trento;117.417;743,5;53.246
40;Vicenza;112.198;1.393,1;51.865
41;Terni;111.455;526,0;51.982
42;Bolzano;106.951;2.043,8;48.761
43;Novara;104.284;1.012,3;48.056
44;Piacenza;102.355;864,0;47.357
45;Ancona;100.696;814,0;46.719
46;Andria;100.331;246,0;34.851
47;Arezzo;99.469;257,5;44.211
48;Udine;99.341;1.753,6;49.766
49;Cesena;96.589;387,2;42.185
50;Lecce;94.989;398,5;44.192
